<?xml version="1.0" encoding="UTF-8" standalone="no"?>
<svg width="107px" height="24px" viewBox="0 0 107 24" version="1.1" xmlns="http://www.w3.org/2000/svg" xmlns:xlink="http://www.w3.org/1999/xlink">
    <!-- Generator: Sketch 48.2 (47327) - http://www.bohemiancoding.com/sketch -->
    <title>Arow Copy</title>
    <desc>Created with Sketch.</desc>
    <defs></defs>
    <g id="Home-Page" stroke="none" stroke-width="1" fill="none" fill-rule="evenodd" transform="translate(-193.000000, -860.000000)">
        <g id="Group-6" transform="translate(-107.000000, 797.000000)">
            <g id="Arow-Copy" transform="translate(300.000000, 63.000000)">
                <g id="Group-3-Copy" transform="translate(53.000000, 12.000000) rotate(180.000000) translate(-53.000000, -12.000000) ">
                    <path d="M0,12 L92,12" id="Line-2" stroke="#FFFFFF" stroke-width="2" stroke-linecap="square"></path>
                    <polygon id="Triangle" fill="#FFFFFF" transform="translate(99.000000, 12.000000) rotate(90.000000) translate(-99.000000, -12.000000) " points="99 5 111 19 87 19"></polygon>
                </g>
            </g>
        </g>
    </g>
</svg>