<?xml version="1.0" encoding="UTF-8" standalone="no"?>
<svg width="31px" height="9px" viewBox="0 0 31 9" version="1.1" xmlns="http://www.w3.org/2000/svg" xmlns:xlink="http://www.w3.org/1999/xlink">
    <!-- Generator: Sketch 48.2 (47327) - http://www.bohemiancoding.com/sketch -->
    <title>Art</title>
    <desc>Created with Sketch.</desc>
    <defs></defs>
    <g id="Home-Page" stroke="none" stroke-width="1" fill="none" fill-rule="evenodd" transform="translate(-175.000000, -1211.000000)" font-family="Monaco" font-size="11" font-weight="normal" letter-spacing="5">
        <g id="Left" transform="translate(146.000000, 1199.000000)" fill="#2B2B2B">
            <g id="Group-7">
                <g id="Tag">
                    <text id="Art">
                        <tspan x="29.5983887" y="21">Art</tspan>
                    </text>
                </g>
            </g>
        </g>
    </g>
</svg>