<?xml version="1.0" encoding="UTF-8" standalone="no"?>
<svg width="219px" height="12px" viewBox="0 0 219 12" version="1.1" xmlns="http://www.w3.org/2000/svg" xmlns:xlink="http://www.w3.org/1999/xlink">
    <!-- Generator: Sketch 48.2 (47327) - http://www.bohemiancoding.com/sketch -->
    <title>Carley Keener | 8 mi Copy</title>
    <desc>Created with Sketch.</desc>
    <defs></defs>
    <g id="Home-Page" stroke="none" stroke-width="1" fill="none" fill-rule="evenodd" transform="translate(-276.000000, -719.000000)" font-family=".AppleSystemUIFont" font-size="12" font-weight="normal" letter-spacing="0.99999994">
        <g id="Group-4" transform="translate(276.000000, 572.000000)" fill="#FFFFFF">
            <text id="Carley-Keener-|-8-mi-Copy">
                <tspan x="0" y="157">Carley Keener   |   8 mint ago</tspan>
            </text>
        </g>
    </g>
</svg>