<?xml version="1.0" encoding="UTF-8" standalone="no"?>
<svg width="239px" height="12px" viewBox="0 0 239 12" version="1.1" xmlns="http://www.w3.org/2000/svg" xmlns:xlink="http://www.w3.org/1999/xlink">
    <!-- Generator: Sketch 48.2 (47327) - http://www.bohemiancoding.com/sketch -->
    <title>Carrie Crawford | 2</title>
    <desc>Created with Sketch.</desc>
    <defs></defs>
    <g id="Home-Page" stroke="none" stroke-width="1" fill="none" fill-rule="evenodd" transform="translate(-146.000000, -1326.000000)" fill-opacity="0.6" font-family=".AppleSystemUIFont" font-size="12" font-weight="normal" letter-spacing="0.99999994">
        <g id="Left" transform="translate(146.000000, 1199.000000)" fill="#000000">
            <g id="Group-7">
                <text id="Carrie-Crawford-|-2">
                    <tspan x="0" y="137">Carrie Crawford   |   2 mint ago</tspan>
                </text>
            </g>
        </g>
    </g>
</svg>