<?xml version="1.0" encoding="UTF-8" standalone="no"?>
<svg width="64px" height="22px" viewBox="0 0 64 22" version="1.1" xmlns="http://www.w3.org/2000/svg" xmlns:xlink="http://www.w3.org/1999/xlink">
    <!-- Generator: Sketch 48.2 (47327) - http://www.bohemiancoding.com/sketch -->
    <title>Fashion</title>
    <desc>Created with Sketch.</desc>
    <defs></defs>
    <g id="Home-Page" stroke="none" stroke-width="1" fill="none" fill-rule="evenodd" transform="translate(-161.000000, -2627.000000)" font-family=".AppleSystemUIFont" font-size="11" font-weight="normal" letter-spacing="5">
        <g id="Right" transform="translate(147.000000, 2223.000000)" fill="#2B2B2B">
            <g id="Group-8">
                <g id="Tag" transform="translate(0.000000, 392.000000)">
                    <text id="Fashion">
                        <tspan x="10.8234863" y="21">Fashion</tspan>
                    </text>
                </g>
            </g>
        </g>
    </g>
</svg>