<?xml version="1.0" encoding="UTF-8" standalone="no"?>
<svg width="16px" height="16px" viewBox="0 0 16 16" version="1.1" xmlns="http://www.w3.org/2000/svg" xmlns:xlink="http://www.w3.org/1999/xlink">
    <!-- Generator: Sketch 48.2 (47327) - http://www.bohemiancoding.com/sketch -->
    <title>Fill 1</title>
    <desc>Created with Sketch.</desc>
    <defs></defs>
    <g id="Home-Page" stroke="none" stroke-width="1" fill="none" fill-rule="evenodd" transform="translate(-192.000000, -82.000000)">
        <g id="Navigation" transform="translate(144.000000, 65.000000)" fill="#000000">
            <g id="Search" transform="translate(0.000000, 17.000000)">
                <g id="icons8-search" transform="translate(56.000000, 8.000000) scale(-1, 1) translate(-56.000000, -8.000000) translate(48.000000, 0.000000)">
                    <path d="M10.4332308,0 C7.38092308,0 4.89476923,2.48615385 4.89476923,5.53846154 C4.89476923,6.84184615 5.36615385,8.02830769 6.12553846,8.976 L0,15.1015385 L0.866461538,15.9753846 L6.99569231,9.84615385 C7.94338462,10.6055385 9.12984615,11.0769231 10.4332308,11.0769231 C13.4855385,11.0769231 15.9716923,8.59076923 15.9716923,5.53846154 C15.9716923,2.48615385 13.4855385,0 10.4332308,0 Z M10.4332308,1.23076923 C12.8184615,1.23076923 14.7409231,3.15323077 14.7409231,5.53846154 C14.7409231,7.92369231 12.8184615,9.84615385 10.4332308,9.84615385 C8.048,9.84615385 6.12553846,7.92369231 6.12553846,5.53846154 C6.12553846,3.15323077 8.048,1.23076923 10.4332308,1.23076923 Z" id="Fill-1"></path>
                </g>
            </g>
        </g>
    </g>
</svg>