<?xml version="1.0" encoding="UTF-8" standalone="no"?>
<svg width="236px" height="11px" viewBox="0 0 236 11" version="1.1" xmlns="http://www.w3.org/2000/svg" xmlns:xlink="http://www.w3.org/1999/xlink">
    <!-- Generator: Sketch 48.2 (47327) - http://www.bohemiancoding.com/sketch -->
    <title>Flora Morris | 6 min</title>
    <desc>Created with Sketch.</desc>
    <defs></defs>
    <g id="Home-Page" stroke="none" stroke-width="1" fill="none" fill-rule="evenodd" transform="translate(-592.000000, -1718.000000)" fill-opacity="0.6" font-family="Monaco" font-size="12" font-weight="normal" letter-spacing="0.99999994">
        <g id="Left" transform="translate(146.000000, 1199.000000)" fill="#000000">
            <g id="Group-8" transform="translate(445.000000, 0.000000)">
                <text id="Flora-Morris-|-6-min">
                    <tspan x="0" y="529">Flora Morris   |   6 mint ago</tspan>
                </text>
            </g>
        </g>
    </g>
</svg>