<?xml version="1.0" encoding="UTF-8" standalone="no"?>
<svg width="107px" height="24px" viewBox="0 0 107 24" version="1.1" xmlns="http://www.w3.org/2000/svg" xmlns:xlink="http://www.w3.org/1999/xlink">
    <!-- Generator: Sketch 48.2 (47327) - http://www.bohemiancoding.com/sketch -->
    <title>Group 3 Copy</title>
    <desc>Created with Sketch.</desc>
    <defs></defs>
    <g id="Home-Page" stroke="none" stroke-width="1" fill="none" fill-rule="evenodd" transform="translate(-579.000000, -3493.000000)">
        <g id="Arow" transform="translate(579.000000, 3493.000000)">
            <g id="Group-3-Copy" transform="translate(53.000000, 12.000000) rotate(180.000000) translate(-53.000000, -12.000000) ">
                <polyline id="Line-2" stroke="#000000" stroke-width="2" stroke-linecap="square" points="0 12 34.4375 12 92 12"></polyline>
                <polygon id="Triangle" fill="#000000" transform="translate(99.000000, 12.000000) rotate(90.000000) translate(-99.000000, -12.000000) " points="99 5 111 19 87 19"></polygon>
            </g>
        </g>
    </g>
</svg>