<?xml version="1.0" encoding="UTF-8" standalone="no"?>
<svg width="12px" height="16px" viewBox="0 0 12 16" version="1.1" xmlns="http://www.w3.org/2000/svg" xmlns:xlink="http://www.w3.org/1999/xlink">
    <!-- Generator: Sketch 48.2 (47327) - http://www.bohemiancoding.com/sketch -->
    <title>icons8-appointment_reminders</title>
    <desc>Created with Sketch.</desc>
    <defs>
        <polygon id="path-1" points="0 0 11.7765946 0 11.7765946 15.5786618 0 15.5786618"></polygon>
    </defs>
    <g id="Home-Page" stroke="none" stroke-width="1" fill="none" fill-rule="evenodd" transform="translate(-1195.000000, -82.000000)">
        <g id="Navigation" transform="translate(144.000000, 65.000000)">
            <g id="Group" transform="translate(1051.000000, 17.000000)">
                <g id="icons8-appointment_reminders">
                    <mask id="mask-2" fill="white">
                        <use xlink:href="#path-1"></use>
                    </mask>
                    <g id="Clip-2"></g>
                    <path d="M5.92384035,0 C5.27577222,0 4.73907228,0.504080987 4.73907228,1.11276156 L4.73907228,2.3824225 C2.70245597,2.88205244 1.18476807,4.61239667 1.18476807,6.67656936 L1.18476807,11.1098114 C1.18476807,11.1098114 1.16581178,11.4191591 1.0094224,11.7062516 C0.851848242,11.9966824 0.662285351,12.2403772 0,12.2403772 L0,13.3531387 L11.8476807,13.3531387 L11.8476807,12.2403772 C11.1439285,12.2403772 10.9638437,11.9966824 10.8157477,11.718492 C10.6676517,11.4358506 10.6629126,11.1320667 10.6629126,11.1320667 L10.6629126,6.67656936 C10.6629126,4.61239667 9.14522473,2.88205244 7.10860842,2.3824225 L7.10860842,1.11276156 C7.10860842,0.504080987 6.57190848,0 5.92384035,0 Z M5.92384035,13.3531387 C5.27103314,13.3531387 4.73907228,13.8527687 4.73907228,14.4659003 C4.73907228,15.0790319 5.27103314,15.5786618 5.92384035,15.5786618 C6.57664756,15.5786618 7.10860842,15.0790319 7.10860842,14.4659003 C7.10860842,13.8527687 6.57664756,13.3531387 5.92384035,13.3531387 Z M5.92384035,3.33828468 C7.89529442,3.33828468 9.47814456,4.82493413 9.47814456,6.67656936 L9.47814456,11.1231646 C9.47814456,11.1231646 9.46392734,11.6539518 9.75538029,12.2058816 C9.76011936,12.2181219 9.76959751,12.227024 9.77433658,12.2403772 L2.04609446,12.2403772 C2.04964876,12.2314751 2.05912691,12.222573 2.06386598,12.2181219 C2.360058,11.6706432 2.36953614,11.1454198 2.36953614,11.1454198 L2.36953614,6.67656936 C2.36953614,4.82493413 3.95238628,3.33828468 5.92384035,3.33828468 Z" id="Fill-1" fill="#000000" mask="url(#mask-2)"></path>
                </g>
            </g>
        </g>
    </g>
</svg>