<?xml version="1.0" encoding="UTF-8" standalone="no"?>
<svg width="54px" height="22px" viewBox="0 0 54 22" version="1.1" xmlns="http://www.w3.org/2000/svg" xmlns:xlink="http://www.w3.org/1999/xlink">
    <!-- Generator: Sketch 48.2 (47327) - http://www.bohemiancoding.com/sketch -->
    <title>Life Style</title>
    <desc>Created with Sketch.</desc>
    <defs></defs>
    <g id="Home-Page" stroke="none" stroke-width="1" fill="none" fill-rule="evenodd" transform="translate(-909.000000, -2236.000000)" font-family=".AppleSystemUIFont" font-size="11" font-weight="normal" letter-spacing="5">
        <g id="Right" transform="translate(147.000000, 2223.000000)" fill="#2B2B2B">
            <g id="Group-7" transform="translate(730.000000, 0.000000)">
                <g id="Tag">
                    <text id="Life-Style">
                        <tspan x="12.6206055" y="21">Life Style</tspan>
                    </text>
                </g>
            </g>
        </g>
    </g>
</svg>