<?xml version="1.0" encoding="UTF-8" standalone="no"?>
<svg width="94px" height="34px" viewBox="0 0 94 34" version="1.1" xmlns="http://www.w3.org/2000/svg" xmlns:xlink="http://www.w3.org/1999/xlink">
    <!-- Generator: Sketch 48.2 (47327) - http://www.bohemiancoding.com/sketch -->
    <title>Tag</title>
    <desc>Created with Sketch.</desc>
    <defs></defs>
    <g id="Home-Page" stroke="none" stroke-width="1" fill="none" fill-rule="evenodd" transform="translate(-147.000000, -2615.000000)">
        <g id="Right" transform="translate(147.000000, 2223.000000)">
            <g id="Group-8">
                <g id="Tag" transform="translate(0.000000, 392.000000)">
                    <rect id="Rectangle-5" fill="#F7F6F6" x="0" y="0" width="94" height="33" rx="3"></rect>
                    <text id="Fashion" font-family=".AppleSystemUIFont" font-size="11" font-weight="normal" letter-spacing="5" fill="#2B2B2B">
                        <tspan x="10.8234863" y="21">Fashion</tspan>
                    </text>
                </g>
            </g>
        </g>
    </g>
</svg>