<?xml version="1.0" encoding="UTF-8" standalone="no"?>
<svg width="66px" height="8px" viewBox="0 0 66 8" version="1.1" xmlns="http://www.w3.org/2000/svg" xmlns:xlink="http://www.w3.org/1999/xlink">
    <!-- Generator: Sketch 48.2 (47327) - http://www.bohemiancoding.com/sketch -->
    <title>Travel</title>
    <desc>Created with Sketch.</desc>
    <defs></defs>
    <g id="Home-Page" stroke="none" stroke-width="1" fill="none" fill-rule="evenodd" transform="translate(-288.000000, -585.000000)" font-family=".AppleSystemUIFont" font-size="11" font-weight="normal" letter-spacing="5">
        <g id="Group-4" transform="translate(276.000000, 572.000000)" fill="#2B2B2B">
            <text id="Travel">
                <tspan x="12" y="21">Travel</tspan>
            </text>
        </g>
    </g>
</svg>